{
    "meme_category": "Meme",
    "meme_content": "",
    "meme_origin": "Nekerafa",
    "meme_status": "Confirmed",
    "meme_tags": ["alvaro, allvaro, el varo de todos, memefications, sistemas operativos, fic, pa ke quieres saber eso jaja salu2"],
    "meme_year": "2015",
    "meta_description": "Surgido en la época en la que el meme \"pa ke quieres saber eso jaja salu2\" estaba en su punto álgido,
        el Grupo de WhatsApp de SO nace de la ausencia de uno de los profesores de dicha asignatura durante la realización del
        examen final, para mayor desconsuelo de profesores y (especialmente) alumnos. El nivel de vergüenza ajena de este meme es
        de más de 9000.",
    "meta_og:title": "Grupo de WhatsApp de SO",
    "meta_og:image": "/static/images/examen-so.png",
    "url": ""
}
